{"failedCount":0,"prefixedPath":"src\/test\/java\/users\/get\/get-user.feature","packageQualifiedName":"src.test.java.users.get.get-user","loopIndex":-1,"relativePath":"src\/test\/java\/users\/get\/get-user.feature","scenarioResults":[{"sectionIndex":1,"stepResults":[{"result":{"nanos":329857400,"millis":329.8574,"status":"passed"},"step":{"line":9,"prefix":"*","index":0,"text":"def jsonResponse = read('..\/json\/list_users.json')"}},{"result":{"nanos":3388600,"millis":3.3886,"status":"passed"},"step":{"line":10,"prefix":"Given","index":1,"text":"url \"https:\/\/reqres.in\/api\/users?page=2\""}},{"result":{"nanos":1347299200,"millis":1347.2992,"status":"passed"},"step":{"line":11,"prefix":"When","index":2,"text":"method Get"},"stepLog":"17:26:57.095 request:\n1 > GET https:\/\/reqres.in\/api\/users?page=2\n1 > Host: reqres.in\n1 > Connection: Keep-Alive\n1 > User-Agent: Apache-HttpClient\/4.5.13 (Java\/11.0.15)\n1 > Accept-Encoding: gzip,deflate\n\n\n17:26:57.572 response time in milliseconds: 446\n1 < 200\n1 < Date: Thu, 21 Jul 2022 22:26:57 GMT\n1 < Content-Type: application\/json; charset=utf-8\n1 < Transfer-Encoding: chunked\n1 < Connection: keep-alive\n1 < X-Powered-By: Express\n1 < Access-Control-Allow-Origin: *\n1 < Etag: W\/\"406-ut0vzoCuidvyMf8arZpMpJ6ZRDw\"\n1 < Via: 1.1 vegur\n1 < Cache-Control: max-age=14400\n1 < CF-Cache-Status: HIT\n1 < Age: 3440\n1 < Expect-CT: max-age=604800, report-uri=\"https:\/\/report-uri.cloudflare.com\/cdn-cgi\/beacon\/expect-ct\"\n1 < Report-To: {\"endpoints\":[{\"url\":\"https:\\\/\\\/a.nel.cloudflare.com\\\/report\\\/v3?s=v29TFCAr4v%2FBDnTVfNOHnA20%2Fd3JJoVBclYO2bNUSNtUxgPfpONtpaEOVhGv5AxM9J%2FqEc7IX7JP2Y8rBjaG0Wu1QsZpP0MVt5pjpgMkka8qCZMzSQy7xi6arQ%3D%3D\"}],\"group\":\"cf-nel\",\"max_age\":604800}\n1 < NEL: {\"success_fraction\":0,\"report_to\":\"cf-nel\",\"max_age\":604800}\n1 < Vary: Accept-Encoding\n1 < Server: cloudflare\n1 < CF-RAY: 72e75c779ce53eff-BOG\n{\"page\":2,\"per_page\":6,\"total\":12,\"total_pages\":2,\"data\":[{\"id\":7,\"email\":\"michael.lawson@reqres.in\",\"first_name\":\"Michael\",\"last_name\":\"Lawson\",\"avatar\":\"https:\/\/reqres.in\/img\/faces\/7-image.jpg\"},{\"id\":8,\"email\":\"lindsay.ferguson@reqres.in\",\"first_name\":\"Lindsay\",\"last_name\":\"Ferguson\",\"avatar\":\"https:\/\/reqres.in\/img\/faces\/8-image.jpg\"},{\"id\":9,\"email\":\"tobias.funke@reqres.in\",\"first_name\":\"Tobias\",\"last_name\":\"Funke\",\"avatar\":\"https:\/\/reqres.in\/img\/faces\/9-image.jpg\"},{\"id\":10,\"email\":\"byron.fields@reqres.in\",\"first_name\":\"Byron\",\"last_name\":\"Fields\",\"avatar\":\"https:\/\/reqres.in\/img\/faces\/10-image.jpg\"},{\"id\":11,\"email\":\"george.edwards@reqres.in\",\"first_name\":\"George\",\"last_name\":\"Edwards\",\"avatar\":\"https:\/\/reqres.in\/img\/faces\/11-image.jpg\"},{\"id\":12,\"email\":\"rachel.howell@reqres.in\",\"first_name\":\"Rachel\",\"last_name\":\"Howell\",\"avatar\":\"https:\/\/reqres.in\/img\/faces\/12-image.jpg\"}],\"support\":{\"url\":\"https:\/\/reqres.in\/#support-heading\",\"text\":\"To keep ReqRes free, contributions towards server costs are appreciated!\"}}\n\n"},{"result":{"nanos":30400,"millis":0.0304,"status":"passed"},"step":{"line":12,"prefix":"Then","index":3,"text":"status  200"}},{"result":{"nanos":32188500,"millis":32.1885,"status":"passed"},"step":{"line":13,"prefix":"And","index":4,"text":"match $ == {\"page\":2,\"per_page\":6,\"total\":12,\"total_pages\":2,\"data\":[{\"id\":7,\"email\":\"michael.lawson@reqres.in\",\"first_name\":\"Michael\",\"last_name\":\"Lawson\",\"avatar\":\"https:\/\/reqres.in\/img\/faces\/7-image.jpg\"},{\"id\":8,\"email\":\"lindsay.ferguson@reqres.in\",\"first_name\":\"Lindsay\",\"last_name\":\"Ferguson\",\"avatar\":\"https:\/\/reqres.in\/img\/faces\/8-image.jpg\"},{\"id\":9,\"email\":\"tobias.funke@reqres.in\",\"first_name\":\"Tobias\",\"last_name\":\"Funke\",\"avatar\":\"https:\/\/reqres.in\/img\/faces\/9-image.jpg\"},{\"id\":10,\"email\":\"byron.fields@reqres.in\",\"first_name\":\"Byron\",\"last_name\":\"Fields\",\"avatar\":\"https:\/\/reqres.in\/img\/faces\/10-image.jpg\"},{\"id\":11,\"email\":\"george.edwards@reqres.in\",\"first_name\":\"George\",\"last_name\":\"Edwards\",\"avatar\":\"https:\/\/reqres.in\/img\/faces\/11-image.jpg\"},{\"id\":12,\"email\":\"rachel.howell@reqres.in\",\"first_name\":\"Rachel\",\"last_name\":\"Howell\",\"avatar\":\"https:\/\/reqres.in\/img\/faces\/12-image.jpg\"}],\"support\":{\"url\":\"https:\/\/reqres.in\/#support-heading\",\"text\":\"To keep ReqRes free, contributions towards server costs are appreciated!\"}}"}},{"result":{"nanos":791000,"millis":0.791,"status":"passed"},"step":{"line":14,"prefix":"And","index":5,"text":"match $ == jsonResponse"}}],"executorName":"main","line":8,"name":"Get users list","description":"","durationMillis":1713.5551,"startTime":1658442415874,"failed":false,"refId":"[2:8]","endTime":1658442417610,"exampleIndex":-1}],"callDepth":0,"name":"Get user of reqrest","description":"","resultDate":"2022-07-21 05:26:57 p. m.","durationMillis":1713.5551,"passedCount":1}