{"failedCount":1,"prefixedPath":"src\/test\/java\/users\/get\/get-user.feature","packageQualifiedName":"src.test.java.users.get.get-user","loopIndex":-1,"relativePath":"src\/test\/java\/users\/get\/get-user.feature","scenarioResults":[{"sectionIndex":1,"stepResults":[{"result":{"nanos":126279600,"errorMessage":"js failed:\n>>>>\n01: read(..\/json\/list_users.json)\n<<<<\norg.graalvm.polyglot.PolyglotException: SyntaxError: Unnamed:1:5 Expected an operand but found .\r\nread(..\/json\/list_users.json)\r\n     ^\n\n- org.graalvm.polyglot.Context.eval(Context.java:401)\n- com.intuit.karate.graal.JsEngine.evalForValue(JsEngine.java:141)\n- com.intuit.karate.graal.JsEngine.eval(JsEngine.java:137)\n- com.intuit.karate.core.ScenarioEngine.evalJs(ScenarioEngine.java:1344)\n- com.intuit.karate.core.ScenarioEngine.evalKarateExpression(ScenarioEngine.java:2373)\n- com.intuit.karate.core.ScenarioEngine.evalKarateExpression(ScenarioEngine.java:2292)\n- com.intuit.karate.core.ScenarioEngine.evalAndCastTo(ScenarioEngine.java:1412)\n\nsrc\/test\/java\/users\/get\/get-user.feature:9","millis":126.2796,"status":"failed"},"step":{"line":9,"prefix":"*","index":0,"text":"def jsonResponse = read(..\/json\/list_users.json)"},"stepLog":"17:26:19.096 src\/test\/java\/users\/get\/get-user.feature:9\n* def jsonResponse = read(..\/json\/list_users.json)\njs failed:\n>>>>\n01: read(..\/json\/list_users.json)\n<<<<\norg.graalvm.polyglot.PolyglotException: SyntaxError: Unnamed:1:5 Expected an operand but found .\r\nread(..\/json\/list_users.json)\r\n     ^\n\n- org.graalvm.polyglot.Context.eval(Context.java:401)\n- com.intuit.karate.graal.JsEngine.evalForValue(JsEngine.java:141)\n- com.intuit.karate.graal.JsEngine.eval(JsEngine.java:137)\n- com.intuit.karate.core.ScenarioEngine.evalJs(ScenarioEngine.java:1344)\n- com.intuit.karate.core.ScenarioEngine.evalKarateExpression(ScenarioEngine.java:2373)\n- com.intuit.karate.core.ScenarioEngine.evalKarateExpression(ScenarioEngine.java:2292)\n- com.intuit.karate.core.ScenarioEngine.evalAndCastTo(ScenarioEngine.java:1412)\n\nsrc\/test\/java\/users\/get\/get-user.feature:9\n"},{"result":{"nanos":0,"millis":0.0,"status":"skipped"},"step":{"line":10,"prefix":"Given","index":1,"text":"url \"https:\/\/reqres.in\/api\/users?page=2\""}},{"result":{"nanos":0,"millis":0.0,"status":"skipped"},"step":{"line":11,"prefix":"When","index":2,"text":"method Get"}},{"result":{"nanos":0,"millis":0.0,"status":"skipped"},"step":{"line":12,"prefix":"Then","index":3,"text":"status  200"}},{"result":{"nanos":0,"millis":0.0,"status":"skipped"},"step":{"line":13,"prefix":"And","index":4,"text":"match $ == {\"page\":2,\"per_page\":6,\"total\":12,\"total_pages\":2,\"data\":[{\"id\":7,\"email\":\"michael.lawson@reqres.in\",\"first_name\":\"Michael\",\"last_name\":\"Lawson\",\"avatar\":\"https:\/\/reqres.in\/img\/faces\/7-image.jpg\"},{\"id\":8,\"email\":\"lindsay.ferguson@reqres.in\",\"first_name\":\"Lindsay\",\"last_name\":\"Ferguson\",\"avatar\":\"https:\/\/reqres.in\/img\/faces\/8-image.jpg\"},{\"id\":9,\"email\":\"tobias.funke@reqres.in\",\"first_name\":\"Tobias\",\"last_name\":\"Funke\",\"avatar\":\"https:\/\/reqres.in\/img\/faces\/9-image.jpg\"},{\"id\":10,\"email\":\"byron.fields@reqres.in\",\"first_name\":\"Byron\",\"last_name\":\"Fields\",\"avatar\":\"https:\/\/reqres.in\/img\/faces\/10-image.jpg\"},{\"id\":11,\"email\":\"george.edwards@reqres.in\",\"first_name\":\"George\",\"last_name\":\"Edwards\",\"avatar\":\"https:\/\/reqres.in\/img\/faces\/11-image.jpg\"},{\"id\":12,\"email\":\"rachel.howell@reqres.in\",\"first_name\":\"Rachel\",\"last_name\":\"Howell\",\"avatar\":\"https:\/\/reqres.in\/img\/faces\/12-image.jpg\"}],\"support\":{\"url\":\"https:\/\/reqres.in\/#support-heading\",\"text\":\"To keep ReqRes free, contributions towards server costs are appreciated!\"}}"}},{"result":{"nanos":0,"millis":0.0,"status":"skipped"},"step":{"line":14,"prefix":"And","index":5,"text":"match $ == jsonResponse"}}],"line":8,"description":"","durationMillis":126.2796,"failed":true,"error":"js failed:\n>>>>\n01: read(..\/json\/list_users.json)\n<<<<\norg.graalvm.polyglot.PolyglotException: SyntaxError: Unnamed:1:5 Expected an operand but found .\r\nread(..\/json\/list_users.json)\r\n     ^\n\n- org.graalvm.polyglot.Context.eval(Context.java:401)\n- com.intuit.karate.graal.JsEngine.evalForValue(JsEngine.java:141)\n- com.intuit.karate.graal.JsEngine.eval(JsEngine.java:137)\n- com.intuit.karate.core.ScenarioEngine.evalJs(ScenarioEngine.java:1344)\n- com.intuit.karate.core.ScenarioEngine.evalKarateExpression(ScenarioEngine.java:2373)\n- com.intuit.karate.core.ScenarioEngine.evalKarateExpression(ScenarioEngine.java:2292)\n- com.intuit.karate.core.ScenarioEngine.evalAndCastTo(ScenarioEngine.java:1412)\n\nsrc\/test\/java\/users\/get\/get-user.feature:9","executorName":"main","name":"Get users list","startTime":1658442378942,"refId":"[2:8]","endTime":1658442379096,"exampleIndex":-1}],"callDepth":0,"name":"Get user of reqrest","description":"","resultDate":"2022-07-21 05:26:19 p. m.","durationMillis":126.2796,"passedCount":0}