{"failedCount":1,"prefixedPath":"classpath:users\/get\/get-user.feature","packageQualifiedName":"users.get.get-user","loopIndex":-1,"relativePath":"users\/get\/get-user.feature","scenarioResults":[{"sectionIndex":0,"stepResults":[{"result":{"nanos":20839100,"millis":20.8391,"status":"passed"},"step":{"line":4,"prefix":"Given","index":0,"text":"url \"https:\/\/reqres.in\" + \"\/api\/users\/\" + \"7\""}},{"result":{"nanos":1092921600,"millis":1092.9216,"status":"passed"},"step":{"line":5,"prefix":"When","index":1,"text":"method Get"},"stepLog":"18:12:31.544 request:\n1 > GET https:\/\/reqres.in\/api\/users\/7\n1 > Host: reqres.in\n1 > Connection: Keep-Alive\n1 > User-Agent: Apache-HttpClient\/4.5.13 (Java\/11.0.15)\n1 > Accept-Encoding: gzip,deflate\n\n\n18:12:32.182 response time in milliseconds: 630\n1 < 200\n1 < Date: Thu, 21 Jul 2022 23:12:32 GMT\n1 < Content-Type: application\/json; charset=utf-8\n1 < Transfer-Encoding: chunked\n1 < Connection: keep-alive\n1 < X-Powered-By: Express\n1 < Access-Control-Allow-Origin: *\n1 < Etag: W\/\"11c-Esb3aX7LcoAMUKcF3i6bvWwxqls\"\n1 < Via: 1.1 vegur\n1 < Cache-Control: max-age=14400\n1 < CF-Cache-Status: HIT\n1 < Age: 1381\n1 < Expect-CT: max-age=604800, report-uri=\"https:\/\/report-uri.cloudflare.com\/cdn-cgi\/beacon\/expect-ct\"\n1 < Report-To: {\"endpoints\":[{\"url\":\"https:\\\/\\\/a.nel.cloudflare.com\\\/report\\\/v3?s=nwbXiSnbIwF3%2BbaXLewIKr6kRt7mnBKEcuw1jJbl2da0o%2FEbimZXjUX0LQcJX6xcQBWTKw7Hc2UyhR9oeQ9fhGbn9SY48kEeRkUQn2yeaR4hy7709cvfUVZntg%3D%3D\"}],\"group\":\"cf-nel\",\"max_age\":604800}\n1 < NEL: {\"success_fraction\":0,\"report_to\":\"cf-nel\",\"max_age\":604800}\n1 < Vary: Accept-Encoding\n1 < Server: cloudflare\n1 < CF-RAY: 72e79f3ad8c2b3e3-MIA\n{\"data\":{\"id\":7,\"email\":\"michael.lawson@reqres.in\",\"first_name\":\"Michael\",\"last_name\":\"Lawson\",\"avatar\":\"https:\/\/reqres.in\/img\/faces\/7-image.jpg\"},\"support\":{\"url\":\"https:\/\/reqres.in\/#support-heading\",\"text\":\"To keep ReqRes free, contributions towards server costs are appreciated!\"}}\n\n"},{"result":{"nanos":28300,"millis":0.0283,"status":"passed"},"step":{"line":6,"prefix":"Then","index":2,"text":"status  200"}}],"executorName":"pool-1-thread-2","line":3,"name":"Get user","description":"","durationMillis":1113.789,"startTime":1658445151050,"failed":false,"refId":"[1:3]","endTime":1658445152182,"exampleIndex":-1},{"sectionIndex":1,"stepResults":[{"result":{"nanos":64079400,"errorMessage":"js failed:\n>>>>\n01: read('..\/..\/..\/resources\/json\/list_users.json')\n<<<<\norg.graalvm.polyglot.PolyglotException: java.io.FileNotFoundException: C:\\Users\\pcc\\pco\\entrenamiento\\RestApiKarate\\build\\resources\\test\\users\\get\\..\\..\\..\\resources\\json\\list_users.json (El sistema no puede encontrar la ruta especificada)\n- com.intuit.karate.resource.FileResource.getStream(FileResource.java:98)\n- com.intuit.karate.core.ScenarioFileReader.readFileAsStream(ScenarioFileReader.java:102)\n- com.intuit.karate.core.ScenarioFileReader.readFileAsString(ScenarioFileReader.java:98)\n- com.intuit.karate.core.ScenarioFileReader.readFile(ScenarioFileReader.java:56)\n- com.intuit.karate.core.ScenarioEngine.lambda$new$0(ScenarioEngine.java:129)\n- <js>.:program(Unnamed:1)\n\nclasspath:users\/get\/get-user.feature:9","millis":64.0794,"status":"failed"},"step":{"line":9,"prefix":"*","index":0,"text":"def jsonResponse = read('..\/..\/..\/resources\/json\/list_users.json')"},"stepLog":"18:12:31.130 classpath:users\/get\/get-user.feature:9\n* def jsonResponse = read('..\/..\/..\/resources\/json\/list_users.json')\njs failed:\n>>>>\n01: read('..\/..\/..\/resources\/json\/list_users.json')\n<<<<\norg.graalvm.polyglot.PolyglotException: java.io.FileNotFoundException: C:\\Users\\pcc\\pco\\entrenamiento\\RestApiKarate\\build\\resources\\test\\users\\get\\..\\..\\..\\resources\\json\\list_users.json (El sistema no puede encontrar la ruta especificada)\n- com.intuit.karate.resource.FileResource.getStream(FileResource.java:98)\n- com.intuit.karate.core.ScenarioFileReader.readFileAsStream(ScenarioFileReader.java:102)\n- com.intuit.karate.core.ScenarioFileReader.readFileAsString(ScenarioFileReader.java:98)\n- com.intuit.karate.core.ScenarioFileReader.readFile(ScenarioFileReader.java:56)\n- com.intuit.karate.core.ScenarioEngine.lambda$new$0(ScenarioEngine.java:129)\n- <js>.:program(Unnamed:1)\n\nclasspath:users\/get\/get-user.feature:9\n"},{"result":{"nanos":0,"millis":0.0,"status":"skipped"},"step":{"line":10,"prefix":"Given","index":1,"text":"url \"https:\/\/reqres.in\/api\/users?page=2\""}},{"result":{"nanos":0,"millis":0.0,"status":"skipped"},"step":{"line":11,"prefix":"When","index":2,"text":"method Get"}},{"result":{"nanos":0,"millis":0.0,"status":"skipped"},"step":{"line":12,"prefix":"Then","index":3,"text":"status  200"}},{"result":{"nanos":0,"millis":0.0,"status":"skipped"},"step":{"line":13,"prefix":"And","index":4,"text":"match $ == {\"page\":2,\"per_page\":6,\"total\":12,\"total_pages\":2,\"data\":[{\"id\":7,\"email\":\"michael.lawson@reqres.in\",\"first_name\":\"Michael\",\"last_name\":\"Lawson\",\"avatar\":\"https:\/\/reqres.in\/img\/faces\/7-image.jpg\"},{\"id\":8,\"email\":\"lindsay.ferguson@reqres.in\",\"first_name\":\"Lindsay\",\"last_name\":\"Ferguson\",\"avatar\":\"https:\/\/reqres.in\/img\/faces\/8-image.jpg\"},{\"id\":9,\"email\":\"tobias.funke@reqres.in\",\"first_name\":\"Tobias\",\"last_name\":\"Funke\",\"avatar\":\"https:\/\/reqres.in\/img\/faces\/9-image.jpg\"},{\"id\":10,\"email\":\"byron.fields@reqres.in\",\"first_name\":\"Byron\",\"last_name\":\"Fields\",\"avatar\":\"https:\/\/reqres.in\/img\/faces\/10-image.jpg\"},{\"id\":11,\"email\":\"george.edwards@reqres.in\",\"first_name\":\"George\",\"last_name\":\"Edwards\",\"avatar\":\"https:\/\/reqres.in\/img\/faces\/11-image.jpg\"},{\"id\":12,\"email\":\"rachel.howell@reqres.in\",\"first_name\":\"Rachel\",\"last_name\":\"Howell\",\"avatar\":\"https:\/\/reqres.in\/img\/faces\/12-image.jpg\"}],\"support\":{\"url\":\"https:\/\/reqres.in\/#support-heading\",\"text\":\"To keep ReqRes free, contributions towards server costs are appreciated!\"}}"}},{"result":{"nanos":0,"millis":0.0,"status":"skipped"},"step":{"line":14,"prefix":"And","index":5,"text":"match $ == jsonResponse"}}],"line":8,"description":"","durationMillis":64.0794,"failed":true,"error":"js failed:\n>>>>\n01: read('..\/..\/..\/resources\/json\/list_users.json')\n<<<<\norg.graalvm.polyglot.PolyglotException: java.io.FileNotFoundException: C:\\Users\\pcc\\pco\\entrenamiento\\RestApiKarate\\build\\resources\\test\\users\\get\\..\\..\\..\\resources\\json\\list_users.json (El sistema no puede encontrar la ruta especificada)\n- com.intuit.karate.resource.FileResource.getStream(FileResource.java:98)\n- com.intuit.karate.core.ScenarioFileReader.readFileAsStream(ScenarioFileReader.java:102)\n- com.intuit.karate.core.ScenarioFileReader.readFileAsString(ScenarioFileReader.java:98)\n- com.intuit.karate.core.ScenarioFileReader.readFile(ScenarioFileReader.java:56)\n- com.intuit.karate.core.ScenarioEngine.lambda$new$0(ScenarioEngine.java:129)\n- <js>.:program(Unnamed:1)\n\nclasspath:users\/get\/get-user.feature:9","executorName":"pool-1-thread-3","name":"Get users list","startTime":1658445151050,"refId":"[2:8]","endTime":1658445151138,"exampleIndex":-1}],"callDepth":0,"name":"Get user of reqrest","description":"","resultDate":"2022-07-21 06:12:34 p. m.","durationMillis":1177.8684,"passedCount":1}